<?xml version="1.0" encoding="UTF-8"?>
<testng-results skipped="3" failed="2" ignored="0" total="5" passed="0">
  <reporter-output>
  </reporter-output>
  <suite name="REGRESSION TESTING" duration-ms="1996" started-at="2020-07-01T08:43:40Z" finished-at="2020-07-01T08:43:42Z">
    <groups>
    </groups>
    <test name="API TESTING" duration-ms="1996" started-at="2020-07-01T08:43:40Z" finished-at="2020-07-01T08:43:42Z">
      <class name="com.framework.testcases.TC_001_ValidateWebServiceMethods">
        <test-method status="PASS" signature="beforeMethod()[pri:0, instance:com.framework.testcases.TC_001_ValidateWebServiceMethods@576d5deb]" name="beforeMethod" is-config="true" duration-ms="21" started-at="2020-07-01T14:13:40Z" finished-at="2020-07-01T14:13:40Z">
          <reporter-output>
          </reporter-output>
        </test-method> <!-- beforeMethod -->
        <test-method status="FAIL" signature="checks_APIs(java.util.Hashtable)[pri:0, instance:com.framework.testcases.TC_001_ValidateWebServiceMethods@576d5deb]" name="checks_APIs" duration-ms="5" started-at="2020-07-01T14:13:40Z" data-provider="getData" finished-at="2020-07-01T14:13:40Z">
          <params>
            <param index="0">
              <value>
                <![CDATA[{RESPONSE HEADER=, RESPONSE STATUS CODE=200, RUNMODE=Y, RESPONSE TIME=4000, STATUS=FAIL, BODY=, RESPONSE FIELD VALUE=Michael, HTTPMETHODS=GET, RESPONSE BODY=[{
    "page": 2,
    "per_page": 6,
    "total": 12,
    "total_pages": 2,
    "data": [
        {
            "id": 7,
            "email": "michael.lawson@reqres.in",
            "first_name": "Michael",
            "last_name": "Lawson",
            "avatar": "https://s3.amazonaws.com/uifaces/faces/twitter/follettkyle/128.jpg"
        },
        {
            "id": 8,
            "email": "lindsay.ferguson@reqres.in",
            "first_name": "Lindsay",
            "last_name": "Ferguson",
            "avatar": "https://s3.amazonaws.com/uifaces/faces/twitter/araa3185/128.jpg"
        },
        {
            "id": 9,
            "email": "tobias.funke@reqres.in",
            "first_name": "Tobias",
            "last_name": "Funke",
            "avatar": "https://s3.amazonaws.com/uifaces/faces/twitter/vivekprvr/128.jpg"
        },
        {
            "id": 10,
            "email": "byron.fields@reqres.in",
            "first_name": "Byron",
            "last_name": "Fields",
            "avatar": "https://s3.amazonaws.com/uifaces/faces/twitter/russoedu/128.jpg"
        },
        {
            "id": 11,
            "email": "george.edwards@reqres.in",
            "first_name": "George",
            "last_name": "Edwards",
            "avatar": "https://s3.amazonaws.com/uifaces/faces/twitter/mrmoiree/128.jpg"
        },
        {
            "id": 12,
            "email": "rachel.howell@reqres.in",
            "first_name": "Rachel",
            "last_name": "Howell",
            "avatar": "https://s3.amazonaws.com/uifaces/faces/twitter/hebertialmeida/128.jpg"
        }
    ],
    "ad": {
        "company": "StatusCode Weekly",
        "url": "http://statuscode.org/",
        "text": "A weekly newsletter focusing on software development, infrastructure, the server, performance, and the stack end of things."
    }
}], URL=https://reqres.in/api/users?page=2, PATH=data[0].first_name, PAGES=LIST USERS}]]>
              </value>
            </param>
          </params>
          <exception class="java.lang.NullPointerException">
            <full-stacktrace>
              <![CDATA[java.lang.NullPointerException
	at com.framework.testcases.TC_001_ValidateWebServiceMethods.checks_APIs(TC_001_ValidateWebServiceMethods.java:54)
	at sun.reflect.NativeMethodAccessorImpl.invoke0(Native Method)
	at sun.reflect.NativeMethodAccessorImpl.invoke(Unknown Source)
	at sun.reflect.DelegatingMethodAccessorImpl.invoke(Unknown Source)
	at java.lang.reflect.Method.invoke(Unknown Source)
	at org.testng.internal.MethodInvocationHelper.invokeMethod(MethodInvocationHelper.java:104)
	at org.testng.internal.Invoker.invokeMethod(Invoker.java:645)
	at org.testng.internal.Invoker.invokeTestMethod(Invoker.java:851)
	at org.testng.internal.Invoker.invokeTestMethods(Invoker.java:1177)
	at org.testng.internal.TestMethodWorker.invokeTestMethods(TestMethodWorker.java:129)
	at org.testng.internal.TestMethodWorker.run(TestMethodWorker.java:112)
	at org.testng.TestRunner.privateRun(TestRunner.java:756)
	at org.testng.TestRunner.run(TestRunner.java:610)
	at org.testng.SuiteRunner.runTest(SuiteRunner.java:387)
	at org.testng.SuiteRunner.runSequentially(SuiteRunner.java:382)
	at org.testng.SuiteRunner.privateRun(SuiteRunner.java:340)
	at org.testng.SuiteRunner.run(SuiteRunner.java:289)
	at org.testng.SuiteRunnerWorker.runSuite(SuiteRunnerWorker.java:52)
	at org.testng.SuiteRunnerWorker.run(SuiteRunnerWorker.java:86)
	at org.testng.TestNG.runSuitesSequentially(TestNG.java:1293)
	at org.testng.TestNG.runSuitesLocally(TestNG.java:1218)
	at org.testng.TestNG.runSuites(TestNG.java:1133)
	at org.testng.TestNG.run(TestNG.java:1104)
	at org.apache.maven.surefire.testng.TestNGExecutor.run(TestNGExecutor.java:295)
	at org.apache.maven.surefire.testng.TestNGXmlTestSuite.execute(TestNGXmlTestSuite.java:84)
	at org.apache.maven.surefire.testng.TestNGProvider.invoke(TestNGProvider.java:90)
	at org.apache.maven.surefire.booter.ForkedBooter.invokeProviderInSameClassLoader(ForkedBooter.java:203)
	at org.apache.maven.surefire.booter.ForkedBooter.runSuitesInProcess(ForkedBooter.java:155)
	at org.apache.maven.surefire.booter.ForkedBooter.main(ForkedBooter.java:103)
]]>
            </full-stacktrace>
          </exception> <!-- java.lang.NullPointerException -->
          <reporter-output>
          </reporter-output>
        </test-method> <!-- checks_APIs -->
        <test-method status="PASS" signature="endTest(org.testng.ITestResult)[pri:0, instance:com.framework.testcases.TC_001_ValidateWebServiceMethods@576d5deb]" name="endTest" is-config="true" duration-ms="907" started-at="2020-07-01T14:13:40Z" finished-at="2020-07-01T14:13:41Z">
          <params>
            <param index="0">
              <value>
                <![CDATA[[TestResult name=checks_APIs status=FAILURE method=TC_001_ValidateWebServiceMethods.checks_APIs(java.util.Hashtable)[pri:0, instance:com.framework.testcases.TC_001_ValidateWebServiceMethods@576d5deb] output={null}]]]>
              </value>
            </param>
          </params>
          <reporter-output>
          </reporter-output>
        </test-method> <!-- endTest -->
        <test-method status="PASS" signature="beforeMethod()[pri:0, instance:com.framework.testcases.TC_001_ValidateWebServiceMethods@576d5deb]" name="beforeMethod" is-config="true" duration-ms="2" started-at="2020-07-01T14:13:41Z" finished-at="2020-07-01T14:13:41Z">
          <reporter-output>
          </reporter-output>
        </test-method> <!-- beforeMethod -->
        <test-method status="FAIL" signature="checks_APIs(java.util.Hashtable)[pri:0, instance:com.framework.testcases.TC_001_ValidateWebServiceMethods@576d5deb]" name="checks_APIs" duration-ms="8" started-at="2020-07-01T14:13:41Z" data-provider="getData" finished-at="2020-07-01T14:13:41Z">
          <params>
            <param index="0">
              <value>
                <![CDATA[{RESPONSE HEADER=, RESPONSE STATUS CODE=200, RUNMODE=Y, RESPONSE TIME=4000, STATUS=FAIL, BODY=, RESPONSE FIELD VALUE=Janet, HTTPMETHODS=GET, RESPONSE BODY={
    "data": {
        "id": 2,
        "email": "janet.weaver@reqres.in",
        "first_name": "Janet",
        "last_name": "Weaver",
        "avatar": "https://s3.amazonaws.com/uifaces/faces/twitter/josephstein/128.jpg"
    },
    "ad": {
        "company": "StatusCode Weekly",
        "url": "http://statuscode.org/",
        "text": "A weekly newsletter focusing on software development, infrastructure, the server, performance, and the stack end of things."
    }
}, URL=https://reqres.in/api/users?page=2, PATH=data.first_name, PAGES=SINGLE USER}]]>
              </value>
            </param>
          </params>
          <exception class="java.lang.NullPointerException">
            <full-stacktrace>
              <![CDATA[java.lang.NullPointerException
	at com.framework.testcases.TC_001_ValidateWebServiceMethods.checks_APIs(TC_001_ValidateWebServiceMethods.java:54)
	at sun.reflect.NativeMethodAccessorImpl.invoke0(Native Method)
	at sun.reflect.NativeMethodAccessorImpl.invoke(Unknown Source)
	at sun.reflect.DelegatingMethodAccessorImpl.invoke(Unknown Source)
	at java.lang.reflect.Method.invoke(Unknown Source)
	at org.testng.internal.MethodInvocationHelper.invokeMethod(MethodInvocationHelper.java:104)
	at org.testng.internal.Invoker.invokeMethod(Invoker.java:645)
	at org.testng.internal.Invoker.invokeTestMethod(Invoker.java:851)
	at org.testng.internal.Invoker.invokeTestMethods(Invoker.java:1177)
	at org.testng.internal.TestMethodWorker.invokeTestMethods(TestMethodWorker.java:129)
	at org.testng.internal.TestMethodWorker.run(TestMethodWorker.java:112)
	at org.testng.TestRunner.privateRun(TestRunner.java:756)
	at org.testng.TestRunner.run(TestRunner.java:610)
	at org.testng.SuiteRunner.runTest(SuiteRunner.java:387)
	at org.testng.SuiteRunner.runSequentially(SuiteRunner.java:382)
	at org.testng.SuiteRunner.privateRun(SuiteRunner.java:340)
	at org.testng.SuiteRunner.run(SuiteRunner.java:289)
	at org.testng.SuiteRunnerWorker.runSuite(SuiteRunnerWorker.java:52)
	at org.testng.SuiteRunnerWorker.run(SuiteRunnerWorker.java:86)
	at org.testng.TestNG.runSuitesSequentially(TestNG.java:1293)
	at org.testng.TestNG.runSuitesLocally(TestNG.java:1218)
	at org.testng.TestNG.runSuites(TestNG.java:1133)
	at org.testng.TestNG.run(TestNG.java:1104)
	at org.apache.maven.surefire.testng.TestNGExecutor.run(TestNGExecutor.java:295)
	at org.apache.maven.surefire.testng.TestNGXmlTestSuite.execute(TestNGXmlTestSuite.java:84)
	at org.apache.maven.surefire.testng.TestNGProvider.invoke(TestNGProvider.java:90)
	at org.apache.maven.surefire.booter.ForkedBooter.invokeProviderInSameClassLoader(ForkedBooter.java:203)
	at org.apache.maven.surefire.booter.ForkedBooter.runSuitesInProcess(ForkedBooter.java:155)
	at org.apache.maven.surefire.booter.ForkedBooter.main(ForkedBooter.java:103)
]]>
            </full-stacktrace>
          </exception> <!-- java.lang.NullPointerException -->
          <reporter-output>
          </reporter-output>
        </test-method> <!-- checks_APIs -->
        <test-method status="PASS" signature="endTest(org.testng.ITestResult)[pri:0, instance:com.framework.testcases.TC_001_ValidateWebServiceMethods@576d5deb]" name="endTest" is-config="true" duration-ms="211" started-at="2020-07-01T14:13:41Z" finished-at="2020-07-01T14:13:41Z">
          <params>
            <param index="0">
              <value>
                <![CDATA[[TestResult name=checks_APIs status=FAILURE method=TC_001_ValidateWebServiceMethods.checks_APIs(java.util.Hashtable)[pri:0, instance:com.framework.testcases.TC_001_ValidateWebServiceMethods@576d5deb] output={null}]]]>
              </value>
            </param>
          </params>
          <reporter-output>
          </reporter-output>
        </test-method> <!-- endTest -->
        <test-method status="PASS" signature="beforeMethod()[pri:0, instance:com.framework.testcases.TC_001_ValidateWebServiceMethods@576d5deb]" name="beforeMethod" is-config="true" duration-ms="1" started-at="2020-07-01T14:13:41Z" finished-at="2020-07-01T14:13:41Z">
          <reporter-output>
          </reporter-output>
        </test-method> <!-- beforeMethod -->
        <test-method status="SKIP" signature="checks_APIs(java.util.Hashtable)[pri:0, instance:com.framework.testcases.TC_001_ValidateWebServiceMethods@576d5deb]" name="checks_APIs" duration-ms="3" started-at="2020-07-01T14:13:41Z" data-provider="getData" finished-at="2020-07-01T14:13:41Z">
          <params>
            <param index="0">
              <value>
                <![CDATA[{RESPONSE HEADER=, RESPONSE STATUS CODE=201, RUNMODE=N, RESPONSE TIME=4000, STATUS=SKIP, BODY={
    "name": "morpheus",
    "job": "leader"
}, RESPONSE FIELD VALUE=morpheus, HTTPMETHODS=POST, RESPONSE BODY={
    "name": "morpheus",
    "job": "leader",
    "id": "828",
    "createdAt": "2020-06-29T06:04:49.786Z"
}, URL=https://reqres.in/api/users, PATH=name, PAGES=CREATE}]]>
              </value>
            </param>
          </params>
          <exception class="org.testng.SkipException">
            <message>
              <![CDATA[THIS TEST CASE RUNMODE IS NO !!!!!!!!!!!]]>
            </message>
            <full-stacktrace>
              <![CDATA[org.testng.SkipException: THIS TEST CASE RUNMODE IS NO !!!!!!!!!!!
	at com.framework.testcases.TC_001_ValidateWebServiceMethods.checks_APIs(TC_001_ValidateWebServiceMethods.java:47)
	at sun.reflect.NativeMethodAccessorImpl.invoke0(Native Method)
	at sun.reflect.NativeMethodAccessorImpl.invoke(Unknown Source)
	at sun.reflect.DelegatingMethodAccessorImpl.invoke(Unknown Source)
	at java.lang.reflect.Method.invoke(Unknown Source)
	at org.testng.internal.MethodInvocationHelper.invokeMethod(MethodInvocationHelper.java:104)
	at org.testng.internal.Invoker.invokeMethod(Invoker.java:645)
	at org.testng.internal.Invoker.invokeTestMethod(Invoker.java:851)
	at org.testng.internal.Invoker.invokeTestMethods(Invoker.java:1177)
	at org.testng.internal.TestMethodWorker.invokeTestMethods(TestMethodWorker.java:129)
	at org.testng.internal.TestMethodWorker.run(TestMethodWorker.java:112)
	at org.testng.TestRunner.privateRun(TestRunner.java:756)
	at org.testng.TestRunner.run(TestRunner.java:610)
	at org.testng.SuiteRunner.runTest(SuiteRunner.java:387)
	at org.testng.SuiteRunner.runSequentially(SuiteRunner.java:382)
	at org.testng.SuiteRunner.privateRun(SuiteRunner.java:340)
	at org.testng.SuiteRunner.run(SuiteRunner.java:289)
	at org.testng.SuiteRunnerWorker.runSuite(SuiteRunnerWorker.java:52)
	at org.testng.SuiteRunnerWorker.run(SuiteRunnerWorker.java:86)
	at org.testng.TestNG.runSuitesSequentially(TestNG.java:1293)
	at org.testng.TestNG.runSuitesLocally(TestNG.java:1218)
	at org.testng.TestNG.runSuites(TestNG.java:1133)
	at org.testng.TestNG.run(TestNG.java:1104)
	at org.apache.maven.surefire.testng.TestNGExecutor.run(TestNGExecutor.java:295)
	at org.apache.maven.surefire.testng.TestNGXmlTestSuite.execute(TestNGXmlTestSuite.java:84)
	at org.apache.maven.surefire.testng.TestNGProvider.invoke(TestNGProvider.java:90)
	at org.apache.maven.surefire.booter.ForkedBooter.invokeProviderInSameClassLoader(ForkedBooter.java:203)
	at org.apache.maven.surefire.booter.ForkedBooter.runSuitesInProcess(ForkedBooter.java:155)
	at org.apache.maven.surefire.booter.ForkedBooter.main(ForkedBooter.java:103)
]]>
            </full-stacktrace>
          </exception> <!-- org.testng.SkipException -->
          <reporter-output>
          </reporter-output>
        </test-method> <!-- checks_APIs -->
        <test-method status="PASS" signature="endTest(org.testng.ITestResult)[pri:0, instance:com.framework.testcases.TC_001_ValidateWebServiceMethods@576d5deb]" name="endTest" is-config="true" duration-ms="240" started-at="2020-07-01T14:13:41Z" finished-at="2020-07-01T14:13:41Z">
          <params>
            <param index="0">
              <value>
                <![CDATA[[TestResult name=checks_APIs status=SKIP method=TC_001_ValidateWebServiceMethods.checks_APIs(java.util.Hashtable)[pri:0, instance:com.framework.testcases.TC_001_ValidateWebServiceMethods@576d5deb] output={null}]]]>
              </value>
            </param>
          </params>
          <reporter-output>
          </reporter-output>
        </test-method> <!-- endTest -->
        <test-method status="PASS" signature="beforeMethod()[pri:0, instance:com.framework.testcases.TC_001_ValidateWebServiceMethods@576d5deb]" name="beforeMethod" is-config="true" duration-ms="1" started-at="2020-07-01T14:13:41Z" finished-at="2020-07-01T14:13:41Z">
          <reporter-output>
          </reporter-output>
        </test-method> <!-- beforeMethod -->
        <test-method status="SKIP" signature="checks_APIs(java.util.Hashtable)[pri:0, instance:com.framework.testcases.TC_001_ValidateWebServiceMethods@576d5deb]" name="checks_APIs" duration-ms="4" started-at="2020-07-01T14:13:41Z" data-provider="getData" finished-at="2020-07-01T14:13:41Z">
          <params>
            <param index="0">
              <value>
                <![CDATA[{RESPONSE HEADER=, RESPONSE STATUS CODE=200, RUNMODE=N, RESPONSE TIME=4000, STATUS=SKIP, BODY={
    "name": "morpheus",
    "job": "zion resident"
}, RESPONSE FIELD VALUE=morpheus, HTTPMETHODS=PUT, RESPONSE BODY={
    "name": "morpheus",
    "job": "zion resident",
    "updatedAt": "2020-06-29T06:05:18.583Z"
}, URL=https://reqres.in/api/users/2, PATH=name, PAGES=UPDATE USER}]]>
              </value>
            </param>
          </params>
          <exception class="org.testng.SkipException">
            <message>
              <![CDATA[THIS TEST CASE RUNMODE IS NO !!!!!!!!!!!]]>
            </message>
            <full-stacktrace>
              <![CDATA[org.testng.SkipException: THIS TEST CASE RUNMODE IS NO !!!!!!!!!!!
	at com.framework.testcases.TC_001_ValidateWebServiceMethods.checks_APIs(TC_001_ValidateWebServiceMethods.java:47)
	at sun.reflect.NativeMethodAccessorImpl.invoke0(Native Method)
	at sun.reflect.NativeMethodAccessorImpl.invoke(Unknown Source)
	at sun.reflect.DelegatingMethodAccessorImpl.invoke(Unknown Source)
	at java.lang.reflect.Method.invoke(Unknown Source)
	at org.testng.internal.MethodInvocationHelper.invokeMethod(MethodInvocationHelper.java:104)
	at org.testng.internal.Invoker.invokeMethod(Invoker.java:645)
	at org.testng.internal.Invoker.invokeTestMethod(Invoker.java:851)
	at org.testng.internal.Invoker.invokeTestMethods(Invoker.java:1177)
	at org.testng.internal.TestMethodWorker.invokeTestMethods(TestMethodWorker.java:129)
	at org.testng.internal.TestMethodWorker.run(TestMethodWorker.java:112)
	at org.testng.TestRunner.privateRun(TestRunner.java:756)
	at org.testng.TestRunner.run(TestRunner.java:610)
	at org.testng.SuiteRunner.runTest(SuiteRunner.java:387)
	at org.testng.SuiteRunner.runSequentially(SuiteRunner.java:382)
	at org.testng.SuiteRunner.privateRun(SuiteRunner.java:340)
	at org.testng.SuiteRunner.run(SuiteRunner.java:289)
	at org.testng.SuiteRunnerWorker.runSuite(SuiteRunnerWorker.java:52)
	at org.testng.SuiteRunnerWorker.run(SuiteRunnerWorker.java:86)
	at org.testng.TestNG.runSuitesSequentially(TestNG.java:1293)
	at org.testng.TestNG.runSuitesLocally(TestNG.java:1218)
	at org.testng.TestNG.runSuites(TestNG.java:1133)
	at org.testng.TestNG.run(TestNG.java:1104)
	at org.apache.maven.surefire.testng.TestNGExecutor.run(TestNGExecutor.java:295)
	at org.apache.maven.surefire.testng.TestNGXmlTestSuite.execute(TestNGXmlTestSuite.java:84)
	at org.apache.maven.surefire.testng.TestNGProvider.invoke(TestNGProvider.java:90)
	at org.apache.maven.surefire.booter.ForkedBooter.invokeProviderInSameClassLoader(ForkedBooter.java:203)
	at org.apache.maven.surefire.booter.ForkedBooter.runSuitesInProcess(ForkedBooter.java:155)
	at org.apache.maven.surefire.booter.ForkedBooter.main(ForkedBooter.java:103)
]]>
            </full-stacktrace>
          </exception> <!-- org.testng.SkipException -->
          <reporter-output>
          </reporter-output>
        </test-method> <!-- checks_APIs -->
        <test-method status="PASS" signature="endTest(org.testng.ITestResult)[pri:0, instance:com.framework.testcases.TC_001_ValidateWebServiceMethods@576d5deb]" name="endTest" is-config="true" duration-ms="201" started-at="2020-07-01T14:13:41Z" finished-at="2020-07-01T14:13:41Z">
          <params>
            <param index="0">
              <value>
                <![CDATA[[TestResult name=checks_APIs status=SKIP method=TC_001_ValidateWebServiceMethods.checks_APIs(java.util.Hashtable)[pri:0, instance:com.framework.testcases.TC_001_ValidateWebServiceMethods@576d5deb] output={null}]]]>
              </value>
            </param>
          </params>
          <reporter-output>
          </reporter-output>
        </test-method> <!-- endTest -->
        <test-method status="PASS" signature="beforeMethod()[pri:0, instance:com.framework.testcases.TC_001_ValidateWebServiceMethods@576d5deb]" name="beforeMethod" is-config="true" duration-ms="2" started-at="2020-07-01T14:13:41Z" finished-at="2020-07-01T14:13:41Z">
          <reporter-output>
          </reporter-output>
        </test-method> <!-- beforeMethod -->
        <test-method status="SKIP" signature="checks_APIs(java.util.Hashtable)[pri:0, instance:com.framework.testcases.TC_001_ValidateWebServiceMethods@576d5deb]" name="checks_APIs" duration-ms="4" started-at="2020-07-01T14:13:41Z" data-provider="getData" finished-at="2020-07-01T14:13:41Z">
          <params>
            <param index="0">
              <value>
                <![CDATA[{RESPONSE HEADER=, RESPONSE STATUS CODE=200, RUNMODE=N, RESPONSE TIME=4000, STATUS=SKIP, BODY=, RESPONSE FIELD VALUE=, HTTPMETHODS=DELETE, RESPONSE BODY={
    "name": "morpheus",
    "job": "zion resident",
    "updatedAt": "2020-06-29T06:05:36.400Z"
}, URL=https://reqres.in/api/users/2, PATH=, PAGES=UPDATE PARTICULAR}]]>
              </value>
            </param>
          </params>
          <exception class="org.testng.SkipException">
            <message>
              <![CDATA[THIS TEST CASE RUNMODE IS NO !!!!!!!!!!!]]>
            </message>
            <full-stacktrace>
              <![CDATA[org.testng.SkipException: THIS TEST CASE RUNMODE IS NO !!!!!!!!!!!
	at com.framework.testcases.TC_001_ValidateWebServiceMethods.checks_APIs(TC_001_ValidateWebServiceMethods.java:47)
	at sun.reflect.NativeMethodAccessorImpl.invoke0(Native Method)
	at sun.reflect.NativeMethodAccessorImpl.invoke(Unknown Source)
	at sun.reflect.DelegatingMethodAccessorImpl.invoke(Unknown Source)
	at java.lang.reflect.Method.invoke(Unknown Source)
	at org.testng.internal.MethodInvocationHelper.invokeMethod(MethodInvocationHelper.java:104)
	at org.testng.internal.Invoker.invokeMethod(Invoker.java:645)
	at org.testng.internal.Invoker.invokeTestMethod(Invoker.java:851)
	at org.testng.internal.Invoker.invokeTestMethods(Invoker.java:1177)
	at org.testng.internal.TestMethodWorker.invokeTestMethods(TestMethodWorker.java:129)
	at org.testng.internal.TestMethodWorker.run(TestMethodWorker.java:112)
	at org.testng.TestRunner.privateRun(TestRunner.java:756)
	at org.testng.TestRunner.run(TestRunner.java:610)
	at org.testng.SuiteRunner.runTest(SuiteRunner.java:387)
	at org.testng.SuiteRunner.runSequentially(SuiteRunner.java:382)
	at org.testng.SuiteRunner.privateRun(SuiteRunner.java:340)
	at org.testng.SuiteRunner.run(SuiteRunner.java:289)
	at org.testng.SuiteRunnerWorker.runSuite(SuiteRunnerWorker.java:52)
	at org.testng.SuiteRunnerWorker.run(SuiteRunnerWorker.java:86)
	at org.testng.TestNG.runSuitesSequentially(TestNG.java:1293)
	at org.testng.TestNG.runSuitesLocally(TestNG.java:1218)
	at org.testng.TestNG.runSuites(TestNG.java:1133)
	at org.testng.TestNG.run(TestNG.java:1104)
	at org.apache.maven.surefire.testng.TestNGExecutor.run(TestNGExecutor.java:295)
	at org.apache.maven.surefire.testng.TestNGXmlTestSuite.execute(TestNGXmlTestSuite.java:84)
	at org.apache.maven.surefire.testng.TestNGProvider.invoke(TestNGProvider.java:90)
	at org.apache.maven.surefire.booter.ForkedBooter.invokeProviderInSameClassLoader(ForkedBooter.java:203)
	at org.apache.maven.surefire.booter.ForkedBooter.runSuitesInProcess(ForkedBooter.java:155)
	at org.apache.maven.surefire.booter.ForkedBooter.main(ForkedBooter.java:103)
]]>
            </full-stacktrace>
          </exception> <!-- org.testng.SkipException -->
          <reporter-output>
          </reporter-output>
        </test-method> <!-- checks_APIs -->
        <test-method status="PASS" signature="endTest(org.testng.ITestResult)[pri:0, instance:com.framework.testcases.TC_001_ValidateWebServiceMethods@576d5deb]" name="endTest" is-config="true" duration-ms="263" started-at="2020-07-01T14:13:41Z" finished-at="2020-07-01T14:13:42Z">
          <params>
            <param index="0">
              <value>
                <![CDATA[[TestResult name=checks_APIs status=SKIP method=TC_001_ValidateWebServiceMethods.checks_APIs(java.util.Hashtable)[pri:0, instance:com.framework.testcases.TC_001_ValidateWebServiceMethods@576d5deb] output={null}]]]>
              </value>
            </param>
          </params>
          <reporter-output>
          </reporter-output>
        </test-method> <!-- endTest -->
      </class> <!-- com.framework.testcases.TC_001_ValidateWebServiceMethods -->
    </test> <!-- API TESTING -->
  </suite> <!-- REGRESSION TESTING -->
</testng-results>
